<?xml version="1.0" standalone="no"?>
<!DOCTYPE svg PUBLIC "-//W3C//DTD SVG 1.1//EN" "http://www.w3.org/Graphics/SVG/1.1/DTD/svg11.dtd">
<svg xmlns="http://www.w3.org/2000/svg">
<metadata>Copyright (C) 2017 by original authors @ fontello.com</metadata>
<defs>
<font id="fontello" horiz-adv-x="1000" >
<font-face font-family="fontello" font-weight="400" font-stretch="normal" units-per-em="1000" ascent="850" descent="-150" />
<missing-glyph horiz-adv-x="1000" />
<glyph glyph-name="felicito-web-v2-copia-13" unicode="&#xe800;" d="M501 850l0 0c275 0 500-225 500-500l0 0c0-276-225-501-500-501l0 0c-276 0-501 225-501 501l0 0c0 275 225 500 501 500l0 0z m264-661v321c0 12-9 22-21 22h-487c-12 0-21-10-21-22v-321c0-12 9-22 21-22h487c12 0 21 10 21 22z m-264 108l-192 192 0 0h383c0 0-191-192-191-192z m221 161c0 0 0-217 0-217l-87 87-30-30c0 0 87-88 87-88 0 0-383 0-383 0l88 88-31 30-87-87c0 0 0 217 0 217l206-206c4-4 10-7 16-7 5 0 11 3 15 7l206 206" horiz-adv-x="1001" />

<glyph glyph-name="felicito-web-v2-copia-14" unicode="&#xe801;" d="M503 850l0 0c276 0 503-226 503-503l0 0c0-276-227-503-503-503l0 0c-277 0-503 227-503 503l0 0c0 277 226 503 503 503l0 0z m-168-419v-98-30-208h336v232 6 39 11 48c0 93-75 169-168 169-93 0-168-76-168-169l0 0z m277-47h-218v47c0 61 49 110 109 110 60 0 109-49 109-110v-48-11 12l0 0z" horiz-adv-x="1006" />

<glyph glyph-name="help-circled" unicode="&#xe802;" d="M454 810q190 2 326-130t140-322q2-190-131-327t-323-141q-190-2-327 131t-139 323q-4 190 130 327t324 139z m-2-740q30 0 49 19t19 47q2 30-17 49t-49 19l-2 0q-28 0-47-18t-21-46q0-30 19-49t47-21l2 0z m166 328q26 34 26 78 0 78-54 116-52 38-134 38-64 0-104-26-68-42-72-146l0-4 110 0 0 4q0 26 16 54 16 24 54 24 40 0 52-20 16-20 16-44 0-18-16-40-8-12-20-20l-6-4q-6-4-16-11t-20-15-21-17-17-17q-14-20-18-78l0-8 108 0 0 4q0 12 4 28 6 20 28 36l28 18q46 34 56 50z" horiz-adv-x="920" />

<glyph glyph-name="search" unicode="&#xe803;" d="M772 78q30-34 6-62l-46-46q-36-32-68 0l-190 190q-74-42-156-42-128 0-223 95t-95 223 90 219 218 91 224-95 96-223q0-88-46-162z m-678 358q0-88 68-156t156-68 151 63 63 153q0 88-68 155t-156 67-151-63-63-151z" horiz-adv-x="789" />

<glyph glyph-name="minus-circled" unicode="&#xe804;" d="M679 314v72q0 14-11 25t-25 10h-429q-14 0-25-10t-10-25v-72q0-14 10-25t25-10h429q14 0 25 10t11 25z m178 36q0-117-57-215t-156-156-215-58-216 58-155 156-58 215 58 215 155 156 216 58 215-58 156-156 57-215z" horiz-adv-x="857.1" />

<glyph glyph-name="plus-circled" unicode="&#xe805;" d="M679 314v72q0 14-11 25t-25 10h-143v143q0 15-11 25t-25 11h-71q-15 0-25-11t-11-25v-143h-143q-14 0-25-10t-10-25v-72q0-14 10-25t25-10h143v-143q0-15 11-25t25-11h71q15 0 25 11t11 25v143h143q14 0 25 10t11 25z m178 36q0-117-57-215t-156-156-215-58-216 58-155 156-58 215 58 215 155 156 216 58 215-58 156-156 57-215z" horiz-adv-x="857.1" />
</font>
</defs>
</svg>